Análisis Exploratorio de Datos
…
rows_with_NAs(walmart)

## # A tibble: 4,129 x 7
##    TripType VisitNumber Weekday   Upc ScanCount DepartmentDescri… FinelineNumber
##       <dbl>       <dbl> <chr>   <dbl>     <dbl> <chr>                      <dbl>
##  1       26           8 Friday     NA         1 NULL                          NA
##  2       27         259 Friday     NA         3 NULL                          NA
##  3       27         259 Friday     NA         1 NULL                          NA
##  4      999         409 Friday     NA        -1 NULL                          NA
##  5       39         479 Friday     NA         1 NULL                          NA
##  6      999         484 Friday     NA        -2 NULL                          NA
##  7      999         484 Friday     NA        -2 NULL                          NA
##  8       44         496 Friday     NA         1 PHARMACY RX                   NA
##  9        5         521 Friday     NA         1 PHARMACY RX                   NA
## 10        5         585 Friday     NA         1 PHARMACY RX                   NA
## # … with 4,119 more rows
…
##              TripType           VisitNumber               Weekday 
##                    38                 95674                     7 
##                   Upc             ScanCount DepartmentDescription 
##                 97715                    39                    69 
##        FinelineNumber 
##                  5196

Y vemos que para tener más de 600 mil observaciones, hay variables que tienen muy pocos valores únicos por lo que algunas de ellas deben de ser variables categóricas.

Observando más detenidamente el dataframe notamos que hay algunos valores en la columna de DepartmentDescription que tienen “NULL” como valor. Puede que esto se trate de un error que se dio al cambiar los datos de formato. Veamos cuantas observaciones presentan este problema:

rows_with_string(walmart, walmart$DepartmentDescription, 'NULL')

## # A tibble: 1,361 x 7
##    TripType VisitNumber Weekday   Upc ScanCount DepartmentDescri… FinelineNumber
##       <dbl>       <dbl> <chr>   <dbl>     <dbl> <chr>                      <dbl>
##  1       26           8 Friday     NA         1 NULL                          NA
##  2       27         259 Friday     NA         3 NULL                          NA
##  3       27         259 Friday     NA         1 NULL                          NA
##  4      999         409 Friday     NA        -1 NULL                          NA
##  5       39         479 Friday     NA         1 NULL                          NA
##  6      999         484 Friday     NA        -2 NULL                          NA
##  7      999         484 Friday     NA        -2 NULL                          NA
##  8       32         845 Friday     NA         1 NULL                          NA
##  9       32         845 Friday     NA         1 NULL                          NA
## 10       40        1004 Friday     NA         1 NULL                          NA
## # … with 1,351 more rows
…
